# Name  SAO_number    mag        RA2000         DEC2000
ALTAIR     125122    0.77    19:50:47.001     +8:52:06.07
HAMAL       75151       2     2:07:10.398    +23:27:44.61
CAPELLA     40186    0.08     5:16:41.358    +45:59:52.98
MENKALINAN  40750     1.9     5:59:31.733    +44:56:50.72
ARCTURUS   100944   -0.04    14:15:39.687    +19:10:56.77
PROCYON	   115756    0.38     7:39:18.123     +5:13:29.95
DENEB       49941    1.25    20:41:25.930    +45:16:49.29
CASTOR_A    60198    1.98     7:34:35.994    +31:53:18.54
POLLUX      79666    1.14     7:45:18.943    +28:01:34.28
ALHENA      95912    1.93     6:37:42.727    +16:23:57.40
ALPHARD    136871    1.98     9:27:35.254     -8:39:31.17
REGULUS     98967    1.35    10:08:22.317    +11:58:02.02
BETELGEUSE 113271     0.5     5:55:10.321     +7:24:25.43
BELLATRIX  112740    1.64     5:25:07.855     +6:20:58.66
ALNILAM    132346     1.7     5:36:12.812     -1:12:07.05
MIRPHAK     38787    1.79     3:24:19.371    +49:51:40.31
ALDEBARAN   94027    0.85     4:35:55.243    +16:30:33.36
ALNATH      77168    1.65     5:26:17.516    +28:36:26.63
DUBHE       15384    1.79    11:03:43.695    +61:45:03.17
ALIOTH      28553    1.77    12:54:01.757    +55:57:35.55
ALKAID      44752    1.86    13:47:32.440    +49:18:48.06
VEGA        67174    0.03    18:36:56.336    +38:47:01.18
